[
{
    "tabla": "Categorias",
    "datos": [
        {"id": 1, "categoria": "Productos"},
        {"id": 2, "categoria": "Servicios"}
    ]
},
{
    "tabla": "SATImpuestos",
    "datos": [
        {"key": "002", "name": "IVA", "tasa": 0.16, "activo": true, "default": true},
        {"key": "001", "name": "ISR", "tasa": 0.10, "tipo": "R", "activo": false},
        {"key": "002", "name": "IVA", "tasa": 0.0, "activo": false},
        {"key": "002", "name": "IVA", "tasa": 0.10, "tipo": "R", "activo": false},
        {"key": "002", "name": "IVA", "tasa": 0.106667, "tipo": "R", "activo": false},
        {"key": "000", "name": "Exento", "tipo": "E", "factor": "E", "activo": false}
    ]
},
{
    "tabla": "SATUnidades",
    "datos": [
        {"key": "ACT", "name": "Actividad", "activo": false},
        {"key": "XBX", "name": "Caja", "activo": false},
        {"key": "XAJ", "name": "Cono", "activo": false},
        {"key": "HUR", "name": "Hora", "activo": true},
        {"key": "KGM", "name": "Kilogramo", "activo": false},
        {"key": "MTR", "name": "Metro", "activo": false},
        {"key": "XPK", "name": "Paquete", "activo": false},
        {"key": "H87", "name": "Pieza", "activo": true},
        {"key": "XRO", "name": "Rollo", "activo": false},
        {"key": "E48", "name": "Servicio", "activo": true},
        {"key": "SR", "name": "Tira", "activo": false},
        {"key": "E51", "name": "Trabajo", "activo": false}
    ]
},
{
    "tabla": "SATNivelesEducativos",
    "datos": [
        {"name": "Preescolar"},
        {"name": "Primaria"},
        {"name": "Secundaria"},
        {"name": "Profesional técnico"},
        {"name": "Bachillerato o su equivalente"}
    ]
},
{
    "tabla": "SATTipoRelacion",
    "datos": [
        {"key": "01", "name": "Nota de crédito de los documentos relacionados", "activo": true},
        {"key": "02", "name": "Nota de débito de los documentos relacionados", "activo": true},
        {"key": "03", "name": "Devolución de mercancía sobre facturas o traslados previos", "activo": true},
        {"key": "04", "name": "Sustitución de los CFDI previos", "activo": true, "default": true},
        {"key": "05", "name": "Traslados de mercancias facturados previamente", "activo": true},
        {"key": "06", "name": "Factura generada por los traslados previos", "activo": true},
        {"key": "07", "name": "CFDI por aplicación de anticipo", "activo": true}
    ]
},
{
    "tabla": "SATMonedas",
    "datos": [
        {"key": "MXN", "name": "Peso Mexicano", "activo": true, "default": true},
        {"key": "USD", "name": "Dólar americano", "activo": false},
        {"key": "EUR", "name": "Euro", "activo": false}
    ]
},
{
    "tabla": "SATFormaPago",
    "datos": [
        {"key": "01", "name": "Efectivo", "activo": true},
        {"key": "02", "name": "Cheque nominativo", "activo": true},
        {"key": "03", "name": "Transferencia electrónica de fondos", "activo": true, "default": true},
        {"key": "04", "name": "Tarjeta de crédito", "activo": true},
        {"key": "05", "name": "Monedero electrónico", "activo": false},
        {"key": "06", "name": "Dinero electrónico", "activo": false},
        {"key": "08", "name": "Vales de despensa", "activo": false},
        {"key": "12", "name": "Dación en pago", "activo": false},
        {"key": "13", "name": "Pago por subrogación", "activo": false},
        {"key": "14", "name": "Pago por consignación", "activo": false},
        {"key": "15", "name": "Condonación", "activo": false},
        {"key": "17", "name": "Compensación", "activo": false},
        {"key": "23", "name": "Novación", "activo": false},
        {"key": "24", "name": "Confusión", "activo": false},
        {"key": "25", "name": "Remisión de deuda", "activo": false},
        {"key": "26", "name": "Prescripción o caducidad", "activo": false},
        {"key": "27", "name": "A satisfacción del acreedor", "activo": false},
        {"key": "28", "name": "Tarjeta de débito", "activo": true},
        {"key": "29", "name": "Tarjeta de servicios", "activo": false},
        {"key": "30", "name": "Aplicación de anticipos", "activo": false},
        {"key": "99", "name": "Por definir", "activo": true}
    ]
},
{
    "tabla": "SATRegimenes",
    "datos": [
        {"key": "601", "name": "General de Ley Personas Morales", "moral": true, "activo": true, "default": true},
        {"key": "603", "name": "Personas Morales con Fines no Lucrativos", "moral": true, "activo": true},
        {"key": "605", "name": "Sueldos y Salarios e Ingresos Asimilados a Salarios", "fisica": true, "activo": true},
        {"key": "606", "name": "Arrendamiento", "fisica": true, "activo": true},
        {"key": "608", "name": "Demás ingresos", "fisica": true, "activo": false},
        {"key": "609", "name": "Consolidación", "moral": true, "activo": false},
        {"key": "610", "name": "Residentes en el Extranjero sin Establecimiento Permanente en México", "fisica": true, "moral": true, "activo": false},
        {"key": "611", "name": "Ingresos por Dividendos (socios y accionistas)", "fisica": true, "activo": false},
        {"key": "612", "name": "Personas Físicas con Actividades Empresariales y Profesionales", "fisica": true, "activo": true, "default": true},
        {"key": "614", "name": "Ingresos por intereses", "fisica": true, "activo": true},
        {"key": "616", "name": "Sin obligaciones fiscales", "fisica": true, "activo": false},
        {"key": "620", "name": "Sociedades Cooperativas de Producción que optan por diferir sus ingresos", "moral": true, "activo": false},
        {"key": "621", "name": "Incorporación Fiscal", "fisica": true, "activo": true},
        {"key": "622", "name": "Actividades Agrícolas, Ganaderas, Silvícolas y Pesqueras", "fisica": true, "moral": true, "activo": false},
        {"key": "623", "name": "Opcional para Grupos de Sociedades", "moral": true, "activo": false},
        {"key": "624", "name": "Coordinados", "moral": true, "activo": false},
        {"key": "628", "name": "Hidrocarburos", "moral": true, "activo": false},
        {"key": "607", "name": "Régimen de Enajenación o Adquisición de Bienes", "moral": true, "activo": false},
        {"key": "629", "name": "De los Regímenes Fiscales Preferentes y de las Empresas Multinacionales", "fisica": true, "activo": false},
        {"key": "630", "name": "Enajenación de acciones en bolsa de valores", "fisica": true, "activo": false},
        {"key": "615", "name": "Régimen de los ingresos por obtención de premios", "fisica": true, "activo": false}
    ]
},
{
    "tabla": "SATBancos",
    "datos": [
        {"key": "002", "name": "BANAMEX", "razon_social": "Banco Nacional de México, S.A., Institución de Banca Múltiple, Grupo Financiero Banamex"},
        {"key": "006", "name": "BANCOMEXT", "razon_social": "Banco Nacional de Comercio Exterior, Sociedad Nacional de Crédito, Institución de Banca de Desarrollo"},
        {"key": "009", "name": "BANOBRAS", "razon_social": "Banco Nacional de Obras y Servicios Públicos, Sociedad Nacional de Crédito, Institución de Banca de Desarrollo"},
        {"key": "012", "name": "BBVABANCOMER", "razon_social": "BBVA Bancomer, S.A., Institución de Banca Múltiple, Grupo Financiero BBVA Bancomer"},
        {"key": "014", "name": "SANTANDER", "razon_social": "Banco Santander (México), S.A., Institución de Banca Múltiple, Grupo Financiero Santander"},
        {"key": "019", "name": "BANJERCITO", "razon_social": "Banco Nacional del Ejército, Fuerza Aérea y Armada, Sociedad Nacional de Crédito, Institución de Banca de Desarrollo"},
        {"key": "021", "name": "HSBC", "razon_social": "HSBC México, S.A., institución De Banca Múltiple, Grupo Financiero HSBC"},
        {"key": "030", "name": "BAJIO", "razon_social": "Banco del Bajío, S.A., Institución de Banca Múltiple"},
        {"key": "106", "name": "BAMSA", "razon_social": "Bank of America México, S.A., Institución de Banca Múltiple, Grupo Financiero Bank of America"},
        {"key": "032", "name": "IXE", "razon_social": "IXE Banco, S.A., Institución de Banca Múltiple, IXE Grupo Financiero"},
        {"key": "036", "name": "INBURSA", "razon_social": "Banco Inbursa, S.A., Institución de Banca Múltiple, Grupo Financiero Inbursa"},
        {"key": "037", "name": "INTERACCIONES", "razon_social": "Banco Interacciones, S.A., Institución de Banca Múltiple"},
        {"key": "042", "name": "MIFEL", "razon_social": "Banca Mifel, S.A., Institución de Banca Múltiple, Grupo Financiero Mifel"},
        {"key": "044", "name": "SCOTIABANK", "razon_social": "Scotiabank Inverlat, S.A."},
        {"key": "059", "name": "INVEX", "razon_social": "Banco Invex, S.A., Institución de Banca Múltiple, Invex Grupo Financiero"},
        {"key": "058", "name": "BANREGIO", "razon_social": "Banco Regional de Monterrey, S.A., Institución de Banca Múltiple, Banregio Grupo Financiero"},
        {"key": "060", "name": "BANSI", "razon_social": "Bansi, S.A., Institución de Banca Múltiple"},
        {"key": "062", "name": "AFIRME", "razon_social": "Banca Afirme, S.A., Institución de Banca Múltiple"},
        {"key": "072", "name": "BANORTE", "razon_social": "Banco Mercantil del Norte, S.A., Institución de Banca Múltiple, Grupo Financiero Banorte"},
        {"key": "102", "name": "THE ROYAL BANK", "razon_social": "The Royal Bank of Scotland México, S.A., Institución de Banca Múltiple"},
        {"key": "103", "name": "AMERICAN EXPRESS", "razon_social": "American Express Bank (México), S.A., Institución de Banca Múltiple"},
        {"key": "108", "name": "TOKYO", "razon_social": "Bank of Tokyo-Mitsubishi UFJ (México), S.A."},
        {"key": "110", "name": "JP MORGAN", "razon_social": "Banco J.P. Morgan, S.A., Institución de Banca Múltiple, J.P. Morgan Grupo Financiero"},
        {"key": "112", "name": "BMONEX", "razon_social": "Banco Monex, S.A., Institución de Banca Múltiple"},
        {"key": "113", "name": "VE POR MAS", "razon_social": "Banco Ve Por Mas, S.A. Institución de Banca Múltiple"},
        {"key": "116", "name": "ING", "razon_social": "ING Bank (México), S.A., Institución de Banca Múltiple, ING Grupo Financiero"},
        {"key": "124", "name": "DEUTSCHE", "razon_social": "Deutsche Bank México, S.A., Institución de Banca Múltiple"},
        {"key": "126", "name": "CREDIT SUISSE", "razon_social": "Banco Credit Suisse (México), S.A. Institución de Banca Múltiple, Grupo Financiero Credit Suisse (México)"},
        {"key": "127", "name": "AZTECA", "razon_social": "Banco Azteca, S.A. Institución de Banca Múltiple."},
        {"key": "128", "name": "AUTOFIN", "razon_social": "Banco Autofin México, S.A. Institución de Banca Múltiple"},
        {"key": "129", "name": "BARCLAYS", "razon_social": "Barclays Bank México, S.A., Institución de Banca Múltiple, Grupo Financiero Barclays México"},
        {"key": "130", "name": "COMPARTAMOS", "razon_social": "Banco Compartamos, S.A., Institución de Banca Múltiple"},
        {"key": "131", "name": "BANCO FAMSA", "razon_social": "Banco Ahorro Famsa, S.A., Institución de Banca Múltiple"},
        {"key": "132", "name": "BMULTIVA", "razon_social": "Banco Multiva, S.A., Institución de Banca Múltiple, Multivalores Grupo Financiero"},
        {"key": "133", "name": "ACTINVER", "razon_social": "Banco Actinver, S.A. Institución de Banca Múltiple, Grupo Financiero Actinver"},
        {"key": "134", "name": "WAL-MART", "razon_social": "Banco Wal-Mart de México Adelante, S.A., Institución de Banca Múltiple"},
        {"key": "135", "name": "NAFIN", "razon_social": "Nacional Financiera, Sociedad Nacional de Crédito, Institución de Banca de Desarrollo"},
        {"key": "136", "name": "INTERBANCO", "razon_social": "Inter Banco, S.A. Institución de Banca Múltiple"},
        {"key": "137", "name": "BANCOPPEL", "razon_social": "BanCoppel, S.A., Institución de Banca Múltiple"},
        {"key": "138", "name": "ABC CAPITAL", "razon_social": "ABC Capital, S.A., Institución de Banca Múltiple"},
        {"key": "139", "name": "UBS BANK", "razon_social": "UBS Bank México, S.A., Institución de Banca Múltiple, UBS Grupo Financiero"},
        {"key": "140", "name": "CONSUBANCO", "razon_social": "Consubanco, S.A. Institución de Banca Múltiple"},
        {"key": "141", "name": "VOLKSWAGEN", "razon_social": "Volkswagen Bank, S.A., Institución de Banca Múltiple"},
        {"key": "143", "name": "CIBANCO", "razon_social": "CIBanco, S.A."},
        {"key": "145", "name": "BBASE", "razon_social": "Banco Base, S.A., Institución de Banca Múltiple"},
        {"key": "166", "name": "BANSEFI", "razon_social": "Banco del Ahorro Nacional y Servicios Financieros, Sociedad Nacional de Crédito, Institución de Banca de Desarrollo"},
        {"key": "168", "name": "HIPOTECARIA FEDERAL", "razon_social": "Sociedad Hipotecaria Federal, Sociedad Nacional de Crédito, Institución de Banca de Desarrollo"},
        {"key": "600", "name": "MONEXCB", "razon_social": "Monex Casa de Bolsa, S.A. de C.V. Monex Grupo Financiero"},
        {"key": "601", "name": "GBM", "razon_social": "GBM Grupo Bursátil Mexicano, S.A. de C.V. Casa de Bolsa"},
        {"key": "602", "name": "MASARI", "razon_social": "Masari Casa de Bolsa, S.A."},
        {"key": "605", "name": "VALUE", "razon_social": "Value, S.A. de C.V. Casa de Bolsa"},
        {"key": "606", "name": "ESTRUCTURADORES", "razon_social": "Estructuradores del Mercado de Valores Casa de Bolsa, S.A. de C.V."},
        {"key": "607", "name": "TIBER", "razon_social": "Casa de Cambio Tiber, S.A. de C.V."},
        {"key": "608", "name": "VECTOR", "razon_social": "Vector Casa de Bolsa, S.A. de C.V."},
        {"key": "610", "name": "B&B", "razon_social": "B y B, Casa de Cambio, S.A. de C.V."},
        {"key": "614", "name": "ACCIVAL", "razon_social": "Acciones y Valores Banamex, S.A. de C.V., Casa de Bolsa"},
        {"key": "615", "name": "MERRILL LYNCH", "razon_social": "Merrill Lynch México, S.A. de C.V. Casa de Bolsa"},
        {"key": "616", "name": "FINAMEX", "razon_social": "Casa de Bolsa Finamex, S.A. de C.V."},
        {"key": "617", "name": "VALMEX", "razon_social": "Valores Mexicanos Casa de Bolsa, S.A. de C.V."},
        {"key": "618", "name": "UNICA", "razon_social": "Unica Casa de Cambio, S.A. de C.V."},
        {"key": "619", "name": "MAPFRE", "razon_social": "MAPFRE Tepeyac, S.A."},
        {"key": "620", "name": "PROFUTURO", "razon_social": "Profuturo G.N.P., S.A. de C.V., Afore"},
        {"key": "621", "name": "CB ACTINVER", "razon_social": "Actinver Casa de Bolsa, S.A. de C.V."},
        {"key": "622", "name": "OACTIN", "razon_social": "OPERADORA ACTINVER, S.A. DE C.V."},
        {"key": "623", "name": "SKANDIA", "razon_social": "Skandia Vida, S.A. de C.V."},
        {"key": "626", "name": "CBDEUTSCHE", "razon_social": "Deutsche Securities, S.A. de C.V. CASA DE BOLSA"},
        {"key": "627", "name": "ZURICH", "razon_social": "Zurich Compañía de Seguros, S.A."},
        {"key": "628", "name": "ZURICHVI", "razon_social": "Zurich Vida, Compañía de Seguros, S.A."},
        {"key": "629", "name": "SU CASITA", "razon_social": "Hipotecaria Su Casita, S.A. de C.V. SOFOM ENR"},
        {"key": "630", "name": "CB INTERCAM", "razon_social": "Intercam Casa de Bolsa, S.A. de C.V."},
        {"key": "631", "name": "CI BOLSA", "razon_social": "CI Casa de Bolsa, S.A. de C.V."},
        {"key": "632", "name": "BULLTICK CB", "razon_social": "Bulltick Casa de Bolsa, S.A., de C.V."},
        {"key": "633", "name": "STERLING", "razon_social": "Sterling Casa de Cambio, S.A. de C.V."},
        {"key": "634", "name": "FINCOMUN", "razon_social": "Fincomún, Servicios Financieros Comunitarios, S.A. de C.V."},
        {"key": "636", "name": "HDI SEGUROS", "razon_social": "HDI Seguros, S.A. de C.V."},
        {"key": "637", "name": "ORDER", "razon_social": "Order Express Casa de Cambio, S.A. de C.V"},
        {"key": "638", "name": "AKALA", "razon_social": "Akala, S.A. de C.V., Sociedad Financiera Popular"},
        {"key": "640", "name": "CB JPMORGAN", "razon_social": "J.P. Morgan Casa de Bolsa, S.A. de C.V. J.P. Morgan Grupo Financiero"},
        {"key": "642", "name": "REFORMA", "razon_social": "Operadora de Recursos Reforma, S.A. de C.V., S.F.P."},
        {"key": "646", "name": "STP", "razon_social": "Sistema de Transferencias y Pagos STP, S.A. de C.V.SOFOM ENR"},
        {"key": "647", "name": "TELECOMM", "razon_social": "Telecomunicaciones de México"},
        {"key": "648", "name": "EVERCORE", "razon_social": "Evercore Casa de Bolsa, S.A. de C.V."},
        {"key": "649", "name": "SKANDIA", "razon_social": "Skandia Operadora de Fondos, S.A. de C.V."},
        {"key": "651", "name": "SEGMTY", "razon_social": "Seguros Monterrey New York Life, S.A de C.V"},
        {"key": "652", "name": "ASEA", "razon_social": "Solución Asea, S.A. de C.V., Sociedad Financiera Popular"},
        {"key": "653", "name": "KUSPIT", "razon_social": "Kuspit Casa de Bolsa, S.A. de C.V."},
        {"key": "655", "name": "SOFIEXPRESS", "razon_social": "J.P. SOFIEXPRESS, S.A. de C.V., S.F.P."},
        {"key": "656", "name": "UNAGRA", "razon_social": "UNAGRA, S.A. de C.V., S.F.P."},
        {"key": "659", "name": "OPCIONES EMPRESARIALES DEL NOROESTE", "razon_social": "OPCIONES EMPRESARIALES DEL NORESTE, S.A. DE C.V., S.F.P."},
        {"key": "670", "name": "LIBERTAD", "razon_social": "Libertad Servicios Financieros, S.A. De C.V."},
        {"key": "901", "name": "CLS", "razon_social": "Cls Bank International"},
        {"key": "902", "name": "INDEVAL", "razon_social": "SD. Indeval, S.A. de C.V."},
        {"key": "999", "name": "N/A"}
    ]
},
{
    "tabla": "SATUsoCfdi",
    "datos": [
        {"key": "G01", "name": "Adquisición de mercancias", "moral": true, "activo": true},
        {"key": "G02", "name": "Devoluciones, descuentos o bonificaciones", "moral": true, "activo": true},
        {"key": "G03", "name": "Gastos en general", "moral": true, "activo": true, "default": true},
        {"key": "I01", "name": "Construcciones", "moral": true, "activo": false},
        {"key": "I02", "name": "Mobilario y equipo de oficina por inversiones", "moral": true, "activo": false},
        {"key": "I03", "name": "Equipo de transporte", "moral": true, "activo": false},
        {"key": "I04", "name": "Equipo de computo y accesorios", "moral": true, "activo": false},
        {"key": "I05", "name": "Dados, troqueles, moldes, matrices y herramental", "moral": true, "activo": false},
        {"key": "I06", "name": "Comunicaciones telefónicas", "moral": true, "activo": false},
        {"key": "I07", "name": "Comunicaciones satelitales", "moral": true, "activo": false},
        {"key": "I08", "name": "Otra maquinaria y equipo", "moral": true, "activo": false},
        {"key": "D01", "name": "Honorarios médicos, dentales y gastos hospitalarios.", "activo": false},
        {"key": "D02", "name": "Gastos médicos por incapacidad o discapacidad", "activo": false},
        {"key": "D03", "name": "Gastos funerales.", "activo": false},
        {"key": "D04", "name": "Donativos.", "activo": true},
        {"key": "D05", "name": "Intereses reales efectivamente pagados por créditos hipotecarios (casa habitación).", "activo": false},
        {"key": "D06", "name": "Aportaciones voluntarias al SAR.", "activo": false},
        {"key": "D07", "name": "Primas por seguros de gastos médicos.", "activo": false},
        {"key": "D08", "name": "Gastos de transportación escolar obligatoria.", "activo": false},
        {"key": "D09", "name": "Depósitos en cuentas para el ahorro, primas que tengan como base planes de pensiones.", "activo": false},
        {"key": "D10", "name": "Pagos por servicios educativos (colegiaturas)", "activo": true},
        {"key": "P01", "name": "Por definir", "moral": true, "activo": true}
    ]
},
{
    "datos": [
        {
            "key": "AGU",
            "name": "Aguascalientes",
            "pais": "MEX"
        },
        {
            "key": "BCN",
            "name": "Baja California",
            "pais": "MEX"
        },
        {
            "key": "BCS",
            "name": "Baja California Sur",
            "pais": "MEX"
        },
        {
            "key": "CAM",
            "name": "Campeche",
            "pais": "MEX"
        },
        {
            "key": "CHP",
            "name": "Chiapas",
            "pais": "MEX"
        },
        {
            "key": "CHH",
            "name": "Chihuahua",
            "pais": "MEX"
        },
        {
            "key": "COA",
            "name": "Coahuila",
            "pais": "MEX"
        },
        {
            "key": "COL",
            "name": "Colima",
            "pais": "MEX"
        },
        {
            "key": "DIF",
            "name": "Ciudad de M\u00e9xico",
            "pais": "MEX"
        },
        {
            "key": "DUR",
            "name": "Durango",
            "pais": "MEX"
        },
        {
            "key": "GUA",
            "name": "Guanajuato",
            "pais": "MEX"
        },
        {
            "key": "GRO",
            "name": "Guerrero",
            "pais": "MEX"
        },
        {
            "key": "HID",
            "name": "Hidalgo",
            "pais": "MEX"
        },
        {
            "key": "JAL",
            "name": "Jalisco",
            "pais": "MEX"
        },
        {
            "key": "MEX",
            "name": "Estado de M\u00e9xico",
            "pais": "MEX"
        },
        {
            "key": "MIC",
            "name": "Michoac\u00e1n",
            "pais": "MEX"
        },
        {
            "key": "MOR",
            "name": "Morelos",
            "pais": "MEX"
        },
        {
            "key": "NAY",
            "name": "Nayarit",
            "pais": "MEX"
        },
        {
            "key": "NLE",
            "name": "Nuevo Le\u00f3n",
            "pais": "MEX"
        },
        {
            "key": "OAX",
            "name": "Oaxaca",
            "pais": "MEX"
        },
        {
            "key": "PUE",
            "name": "Puebla",
            "pais": "MEX"
        },
        {
            "key": "QUE",
            "name": "Quer\u00e9taro",
            "pais": "MEX"
        },
        {
            "key": "ROO",
            "name": "Quintana Roo",
            "pais": "MEX"
        },
        {
            "key": "SLP",
            "name": "San Luis Potos\u00ed",
            "pais": "MEX"
        },
        {
            "key": "SIN",
            "name": "Sinaloa",
            "pais": "MEX"
        },
        {
            "key": "SON",
            "name": "Sonora",
            "pais": "MEX"
        },
        {
            "key": "TAB",
            "name": "Tabasco",
            "pais": "MEX"
        },
        {
            "key": "TAM",
            "name": "Tamaulipas",
            "pais": "MEX"
        },
        {
            "key": "TLA",
            "name": "Tlaxcala",
            "pais": "MEX"
        },
        {
            "key": "VER",
            "name": "Veracruz",
            "pais": "MEX"
        },
        {
            "key": "YUC",
            "name": "Yucat\u00e1n",
            "pais": "MEX"
        },
        {
            "key": "ZAC",
            "name": "Zacatecas",
            "pais": "MEX"
        },
        {
            "key": "AL",
            "name": "Alabama",
            "pais": "USA"
        },
        {
            "key": "AK",
            "name": "Alaska",
            "pais": "USA"
        },
        {
            "key": "AZ",
            "name": "Arizona",
            "pais": "USA"
        },
        {
            "key": "AR",
            "name": "Arkansas",
            "pais": "USA"
        },
        {
            "key": "CA",
            "name": "California",
            "pais": "USA"
        },
        {
            "key": "NC",
            "name": "Carolina del Norte",
            "pais": "USA"
        },
        {
            "key": "SC",
            "name": "Carolina del Sur",
            "pais": "USA"
        },
        {
            "key": "CO",
            "name": "Colorado",
            "pais": "USA"
        },
        {
            "key": "CT",
            "name": "Connecticut",
            "pais": "USA"
        },
        {
            "key": "ND",
            "name": "Dakota del Norte",
            "pais": "USA"
        },
        {
            "key": "SD",
            "name": "Dakota del Sur",
            "pais": "USA"
        },
        {
            "key": "DE",
            "name": "Delaware",
            "pais": "USA"
        },
        {
            "key": "FL",
            "name": "Florida",
            "pais": "USA"
        },
        {
            "key": "GA",
            "name": "Georgia",
            "pais": "USA"
        },
        {
            "key": "HI",
            "name": "Haw\u00e1i",
            "pais": "USA"
        },
        {
            "key": "ID",
            "name": "Idaho",
            "pais": "USA"
        },
        {
            "key": "IL",
            "name": "Illinois",
            "pais": "USA"
        },
        {
            "key": "IN",
            "name": "Indiana",
            "pais": "USA"
        },
        {
            "key": "IA",
            "name": "Iowa",
            "pais": "USA"
        },
        {
            "key": "KS",
            "name": "Kansas",
            "pais": "USA"
        },
        {
            "key": "KY",
            "name": "Kentucky",
            "pais": "USA"
        },
        {
            "key": "LA",
            "name": "Luisiana",
            "pais": "USA"
        },
        {
            "key": "ME",
            "name": "Maine",
            "pais": "USA"
        },
        {
            "key": "MD",
            "name": "Maryland",
            "pais": "USA"
        },
        {
            "key": "MA",
            "name": "Massachusetts",
            "pais": "USA"
        },
        {
            "key": "MI",
            "name": "M\u00edchigan",
            "pais": "USA"
        },
        {
            "key": "MN",
            "name": "Minnesota",
            "pais": "USA"
        },
        {
            "key": "MS",
            "name": "Misisipi",
            "pais": "USA"
        },
        {
            "key": "MO",
            "name": "Misuri",
            "pais": "USA"
        },
        {
            "key": "MT",
            "name": "Montana",
            "pais": "USA"
        },
        {
            "key": "NE",
            "name": "Nebraska",
            "pais": "USA"
        },
        {
            "key": "NV",
            "name": "Nevada",
            "pais": "USA"
        },
        {
            "key": "NJ",
            "name": "Nueva Jersey",
            "pais": "USA"
        },
        {
            "key": "NY",
            "name": "Nueva York",
            "pais": "USA"
        },
        {
            "key": "NH",
            "name": "Nuevo Hampshire",
            "pais": "USA"
        },
        {
            "key": "NM",
            "name": "Nuevo M\u00e9xico",
            "pais": "USA"
        },
        {
            "key": "OH",
            "name": "Ohio",
            "pais": "USA"
        },
        {
            "key": "OK",
            "name": "Oklahoma",
            "pais": "USA"
        },
        {
            "key": "OR",
            "name": "Oreg\u00f3n",
            "pais": "USA"
        },
        {
            "key": "PA",
            "name": "Pensilvania",
            "pais": "USA"
        },
        {
            "key": "RI",
            "name": "Rhode Island",
            "pais": "USA"
        },
        {
            "key": "TN",
            "name": "Tennessee",
            "pais": "USA"
        },
        {
            "key": "TX",
            "name": "Texas",
            "pais": "USA"
        },
        {
            "key": "UT",
            "name": "Utah",
            "pais": "USA"
        },
        {
            "key": "VT",
            "name": "Vermont",
            "pais": "USA"
        },
        {
            "key": "VA",
            "name": "Virginia",
            "pais": "USA"
        },
        {
            "key": "WV",
            "name": "Virginia Occidental",
            "pais": "USA"
        },
        {
            "key": "WA",
            "name": "Washington",
            "pais": "USA"
        },
        {
            "key": "WI",
            "name": "Wisconsin",
            "pais": "USA"
        },
        {
            "key": "WY",
            "name": "Wyoming",
            "pais": "USA"
        },
        {
            "key": "ON",
            "name": "Ontario\u00a0",
            "pais": "CAN"
        },
        {
            "key": "QC",
            "name": "Quebec\u00a0",
            "pais": "CAN"
        },
        {
            "key": "NS",
            "name": "Nueva Escocia",
            "pais": "CAN"
        },
        {
            "key": "NB",
            "name": "Nuevo Brunswick\u00a0",
            "pais": "CAN"
        },
        {
            "key": "MB",
            "name": "Manitoba",
            "pais": "CAN"
        },
        {
            "key": "BC",
            "name": "Columbia Brit\u00e1nica",
            "pais": "CAN"
        },
        {
            "key": "PE",
            "name": "Isla del Pr\u00edncipe Eduardo",
            "pais": "CAN"
        },
        {
            "key": "SK",
            "name": "Saskatchewan",
            "pais": "CAN"
        },
        {
            "key": "AB",
            "name": "Alberta",
            "pais": "CAN"
        },
        {
            "key": "NL",
            "name": "Terranova y Labrador",
            "pais": "CAN"
        },
        {
            "key": "NT",
            "name": "Territorios del Noroeste",
            "pais": "CAN"
        },
        {
            "key": "YT",
            "name": "Yuk\u00f3n",
            "pais": "CAN"
        },
        {
            "key": "UN",
            "name": "Nunavut",
            "pais": "CAN"
        }
    ],
    "tabla": "SATEstados"
},
{
    "datos": [
        {
            "key": "IP",
            "name": "Ingresos propios."
        },
        {
            "key": "IF",
            "name": "Ingreso federales."
        },
        {
            "key": "IM",
            "name": "Ingresos mixtos."
        }
    ],
    "tabla": "SATOrigenRecurso"
},
{
    "datos": [
        {
            "key": "01",
            "name": "Diario"
        },
        {
            "key": "02",
            "name": "Semanal"
        },
        {
            "key": "03",
            "name": "Catorcenal"
        },
        {
            "key": "04",
            "name": "Quincenal"
        },
        {
            "key": "05",
            "name": "Mensual"
        },
        {
            "key": "06",
            "name": "Bimestral"
        },
        {
            "key": "07",
            "name": "Unidad obra"
        },
        {
            "key": "08",
            "name": "Comisi\u00f3n"
        },
        {
            "key": "09",
            "name": "Precio alzado"
        },
        {
            "key": "10",
            "name": "Decenal"
        },
        {
            "key": "99",
            "name": "Otra Periodicidad"
        }
    ],
    "tabla": "SATPeriodicidadPago"
},
{
    "datos": [
        {
            "key": "1",
            "name": "Clase I"
        },
        {
            "key": "2",
            "name": "Clase II"
        },
        {
            "key": "3",
            "name": "Clase III"
        },
        {
            "key": "4",
            "name": "Clase IV"
        },
        {
            "key": "5",
            "name": "Clase V"
        },
        {
            "key": "99",
            "name": "No aplica"
        }
    ],
    "tabla": "SATRiesgoPuesto"
},
{
    "datos": [
        {
            "key": "01",
            "name": "Contrato de trabajo por tiempo indeterminado"
        },
        {
            "key": "02",
            "name": "Contrato de trabajo para obra determinada"
        },
        {
            "key": "03",
            "name": "Contrato de trabajo por tiempo determinado"
        },
        {
            "key": "04",
            "name": "Contrato de trabajo por temporada"
        },
        {
            "key": "05",
            "name": "Contrato de trabajo sujeto a prueba"
        },
        {
            "key": "06",
            "name": "Contrato de trabajo con capacitaci\u00f3n inicial"
        },
        {
            "key": "07",
            "name": "Modalidad de contrataci\u00f3n por pago de hora laborada"
        },
        {
            "key": "08",
            "name": "Modalidad de trabajo por comisi\u00f3n laboral"
        },
        {
            "key": "09",
            "name": "Modalidades de contrataci\u00f3n donde no existe relaci\u00f3n de trabajo"
        },
        {
            "key": "10",
            "name": "Jubilaci\u00f3n, pensi\u00f3n, retiro."
        },
        {
            "key": "99",
            "name": "Otro contrato"
        }
    ],
    "tabla": "SATTipoContrato"
},
{
    "datos": [
        {
            "key": "001",
            "name": "Seguridad social"
        },
        {
            "key": "002",
            "name": "ISR"
        },
        {
            "key": "003",
            "name": "Aportaciones a retiro, cesant\u00eda en edad avanzada y vejez."
        },
        {
            "key": "004",
            "name": "Otros"
        },
        {
            "key": "005",
            "name": "Aportaciones a Fondo de vivienda"
        },
        {
            "key": "006",
            "name": "Descuento por incapacidad"
        },
        {
            "key": "007",
            "name": "Pensi\u00f3n alimenticia"
        },
        {
            "key": "008",
            "name": "Renta"
        },
        {
            "key": "009",
            "name": "Pr\u00e9stamos provenientes del Fondo Nacional de la Vivienda para los Trabajadores"
        },
        {
            "key": "010",
            "name": "Pago por cr\u00e9dito de vivienda"
        },
        {
            "key": "011",
            "name": "Pago de abonos INFONACOT"
        },
        {
            "key": "012",
            "name": "Anticipo de salarios"
        },
        {
            "key": "013",
            "name": "Pagos hechos con exceso al trabajador"
        },
        {
            "key": "014",
            "name": "Errores"
        },
        {
            "key": "015",
            "name": "P\u00e9rdidas"
        },
        {
            "key": "016",
            "name": "Aver\u00edas"
        },
        {
            "key": "017",
            "name": "Adquisici\u00f3n de art\u00edculos producidos por la empresa o establecimiento"
        },
        {
            "key": "018",
            "name": "Cuotas para la constituci\u00f3n y fomento de sociedades cooperativas y de cajas de ahorro"
        },
        {
            "key": "019",
            "name": "Cuotas sindicales"
        },
        {
            "key": "020",
            "name": "Ausencia (Ausentismo)"
        },
        {
            "key": "021",
            "name": "Cuotas obrero patronales"
        },
        {
            "key": "022",
            "name": "Impuestos Locales"
        },
        {
            "key": "023",
            "name": "Aportaciones voluntarias"
        },
        {
            "key": "024",
            "name": "Ajuste en Gratificaci\u00f3n Anual (Aguinaldo) Exento"
        },
        {
            "key": "025",
            "name": "Ajuste en Gratificaci\u00f3n Anual (Aguinaldo) Gravado"
        },
        {
            "key": "026",
            "name": "Ajuste en Participaci\u00f3n de los Trabajadores en las Utilidades PTU Exento"
        },
        {
            "key": "027",
            "name": "Ajuste en Participaci\u00f3n de los Trabajadores en las Utilidades PTU Gravado"
        },
        {
            "key": "028",
            "name": "Ajuste en Reembolso de Gastos M\u00e9dicos Dentales y Hospitalarios Exento"
        },
        {
            "key": "029",
            "name": "Ajuste en Fondo de ahorro Exento"
        },
        {
            "key": "030",
            "name": "Ajuste en Caja de ahorro Exento"
        },
        {
            "key": "031",
            "name": "Ajuste en Contribuciones a Cargo del Trabajador Pagadas por el Patr\u00f3n Exento"
        },
        {
            "key": "032",
            "name": "Ajuste en Premios por puntualidad Gravado"
        },
        {
            "key": "033",
            "name": "Ajuste en Prima de Seguro de vida Exento"
        },
        {
            "key": "034",
            "name": "Ajuste en Seguro de Gastos M\u00e9dicos Mayores Exento"
        },
        {
            "key": "035",
            "name": "Ajuste en Cuotas Sindicales Pagadas por el Patr\u00f3n Exento"
        },
        {
            "key": "036",
            "name": "Ajuste en Subsidios por incapacidad Exento"
        },
        {
            "key": "037",
            "name": "Ajuste en Becas para trabajadores y/o hijos Exento"
        },
        {
            "key": "038",
            "name": "Ajuste en Horas extra Exento"
        },
        {
            "key": "039",
            "name": "Ajuste en Horas extra Gravado"
        },
        {
            "key": "040",
            "name": "Ajuste en Prima dominical Exento"
        },
        {
            "key": "041",
            "name": "Ajuste en Prima dominical Gravado"
        },
        {
            "key": "042",
            "name": "Ajuste en Prima vacacional Exento"
        },
        {
            "key": "043",
            "name": "Ajuste en Prima vacacional Gravado"
        },
        {
            "key": "044",
            "name": "Ajuste en Prima por antig\u00fcedad Exento"
        },
        {
            "key": "045",
            "name": "Ajuste en Prima por antig\u00fcedad Gravado"
        },
        {
            "key": "046",
            "name": "Ajuste en Pagos por separaci\u00f3n Exento"
        },
        {
            "key": "047",
            "name": "Ajuste en Pagos por separaci\u00f3n Gravado"
        },
        {
            "key": "048",
            "name": "Ajuste en Seguro de retiro Exento"
        },
        {
            "key": "049",
            "name": "Ajuste en Indemnizaciones Exento"
        },
        {
            "key": "050",
            "name": "Ajuste en Indemnizaciones Gravado"
        },
        {
            "key": "051",
            "name": "Ajuste en Reembolso por funeral Exento"
        },
        {
            "key": "052",
            "name": "Ajuste en Cuotas de seguridad social pagadas por el patr\u00f3n Exento"
        },
        {
            "key": "053",
            "name": "Ajuste en Comisiones Gravado"
        },
        {
            "key": "054",
            "name": "Ajuste en Vales de despensa Exento"
        },
        {
            "key": "055",
            "name": "Ajuste en Vales de restaurante Exento"
        },
        {
            "key": "056",
            "name": "Ajuste en Vales de gasolina Exento"
        },
        {
            "key": "057",
            "name": "Ajuste en Vales de ropa Exento"
        },
        {
            "key": "058",
            "name": "Ajuste en Ayuda para renta Exento"
        },
        {
            "key": "059",
            "name": "Ajuste en Ayuda para art\u00edculos escolares Exento"
        },
        {
            "key": "060",
            "name": "Ajuste en Ayuda para anteojos Exento"
        },
        {
            "key": "061",
            "name": "Ajuste en Ayuda para transporte Exento"
        },
        {
            "key": "062",
            "name": "Ajuste en Ayuda para gastos de funeral Exento"
        },
        {
            "key": "063",
            "name": "Ajuste en Otros ingresos por salarios Exento"
        },
        {
            "key": "064",
            "name": "Ajuste en Otros ingresos por salarios Gravado"
        },
        {
            "key": "065",
            "name": "Ajuste en Jubilaciones, pensiones o haberes de retiro Exento"
        },
        {
            "key": "066",
            "name": "Ajuste en Jubilaciones, pensiones o haberes de retiro Gravado"
        },
        {
            "key": "067",
            "name": "Ajuste en Pagos por separaci\u00f3n Acumulable"
        },
        {
            "key": "068",
            "name": "Ajuste en Pagos por separaci\u00f3n No acumulable"
        },
        {
            "key": "069",
            "name": "Ajuste en Jubilaciones, pensiones o haberes de retiro Acumulable"
        },
        {
            "key": "070",
            "name": "Ajuste en Jubilaciones, pensiones o haberes de retiro No acumulable"
        },
        {
            "key": "071",
            "name": "Ajuste en Subsidio para el empleo (efectivamente entregado al trabajador)"
        },
        {
            "key": "072",
            "name": "Ajuste en Ingresos en acciones o t\u00edtulos valor que representan bienes Exento"
        },
        {
            "key": "073",
            "name": "Ajuste en Ingresos en acciones o t\u00edtulos valor que representan bienes Gravado"
        },
        {
            "key": "074",
            "name": "Ajuste en Alimentaci\u00f3n Exento"
        },
        {
            "key": "075",
            "name": "Ajuste en Alimentaci\u00f3n Gravado"
        },
        {
            "key": "076",
            "name": "Ajuste en Habitaci\u00f3n Exento"
        },
        {
            "key": "077",
            "name": "Ajuste en Habitaci\u00f3n Gravado"
        },
        {
            "key": "078",
            "name": "Ajuste en Premios por asistencia"
        },
        {
            "key": "079",
            "name": "Ajuste en Pagos distintos a los listados y que no deben considerarse como ingreso por sueldos, salarios o ingresos asimilados."
        },
        {
            "key": "080",
            "name": "Ajuste en Vi\u00e1ticos gravados"
        },
        {
            "key": "081",
            "name": "Ajuste en Vi\u00e1ticos (entregados al trabajador)"
        },
        {
            "key": "082",
            "name": "Ajuste en Fondo de ahorro Gravado"
        },
        {
            "key": "083",
            "name": "Ajuste en Caja de ahorro Gravado"
        },
        {
            "key": "084",
            "name": "Ajuste en Prima de Seguro de vida Gravado"
        },
        {
            "key": "085",
            "name": "Ajuste en Seguro de Gastos M\u00e9dicos Mayores Gravado"
        },
        {
            "key": "086",
            "name": "Ajuste en Subsidios por incapacidad Gravado"
        },
        {
            "key": "087",
            "name": "Ajuste en Becas para trabajadores y/o hijos Gravado"
        },
        {
            "key": "088",
            "name": "Ajuste en Seguro de retiro Gravado"
        },
        {
            "key": "089",
            "name": "Ajuste en Vales de despensa Gravado"
        },
        {
            "key": "090",
            "name": "Ajuste en Vales de restaurante Gravado"
        },
        {
            "key": "091",
            "name": "Ajuste en Vales de gasolina Gravado"
        },
        {
            "key": "092",
            "name": "Ajuste en Vales de ropa Gravado"
        },
        {
            "key": "093",
            "name": "Ajuste en Ayuda para renta Gravado"
        },
        {
            "key": "094",
            "name": "Ajuste en Ayuda para art\u00edculos escolares Gravado"
        },
        {
            "key": "095",
            "name": "Ajuste en Ayuda para anteojos Gravado"
        },
        {
            "key": "096",
            "name": "Ajuste en Ayuda para transporte Gravado"
        },
        {
            "key": "097",
            "name": "Ajuste en Ayuda para gastos de funeral Gravado"
        },
        {
            "key": "098",
            "name": "Ajuste a ingresos asimilados a salarios gravados"
        },
        {
            "key": "099",
            "name": "Ajuste a ingresos por sueldos y salarios gravados"
        },
        {
            "key": "100",
            "name": "Ajuste en Vi\u00e1ticos exentos"
        },
        {
            "key": "101",
            "name": "ISR Retenido de ejercicio anterior"
        }
    ],
    "tabla": "SATTipoDeduccion"
},
{
    "datos": [
        {
            "key": "01",
            "name": "Dobles"
        },
        {
            "key": "02",
            "name": "Triples"
        },
        {
            "key": "03",
            "name": "Simples"
        }
    ],
    "tabla": "SATTipoHoras"
},
{
    "datos": [
        {
            "key": "01",
            "name": "Riesgo de trabajo."
        },
        {
            "key": "02",
            "name": "Enfermedad en general."
        },
        {
            "key": "03",
            "name": "Maternidad."
        }
    ],
    "tabla": "SATTipoIncapacidad"
},
{
    "datos": [
        {
            "key": "01",
            "name": "Diurna"
        },
        {
            "key": "02",
            "name": "Nocturna"
        },
        {
            "key": "03",
            "name": "Mixta"
        },
        {
            "key": "04",
            "name": "Por hora"
        },
        {
            "key": "05",
            "name": "Reducida"
        },
        {
            "key": "06",
            "name": "Continuada"
        },
        {
            "key": "07",
            "name": "Partida"
        },
        {
            "key": "08",
            "name": "Por turnos"
        },
        {
            "key": "99",
            "name": "Otra Jornada"
        }
    ],
    "tabla": "SATTipoJornada"
},
{
    "datos": [
        {
            "key": "O",
            "name": "N\u00f3mina ordinaria"
        },
        {
            "key": "E",
            "name": "N\u00f3mina extraordinaria"
        }
    ],
    "tabla": "SATTipoNomina"
},
{
    "datos": [
        {
            "key": "001",
            "name": "Reintegro de ISR pagado en exceso (siempre que no haya sido enterado al SAT)."
        },
        {
            "key": "002",
            "name": "Subsidio para el empleo (efectivamente entregado al trabajador)."
        },
        {
            "key": "003",
            "name": "Vi\u00e1ticos (entregados al trabajador)."
        },
        {
            "key": "004",
            "name": "Aplicaci\u00f3n de saldo a favor por compensaci\u00f3n anual."
        },
        {
            "key": "005",
            "name": "Reintegro de ISR retenido en exceso de ejercicio anterior (siempre que no haya sido enterado al SAT)."
        },
        {
            "key": "999",
            "name": "Pagos distintos a los listados y que no deben considerarse como ingreso por sueldos, salarios o ingresos asimilados."
        }
    ],
    "tabla": "SATTipoOtroPago"
},
{
    "datos": [
        {
            "key": "001",
            "name": "Sueldos, Salarios  Rayas y Jornales"
        },
        {
            "key": "002",
            "name": "Gratificaci\u00f3n Anual (Aguinaldo)"
        },
        {
            "key": "003",
            "name": "Participaci\u00f3n de los Trabajadores en las Utilidades PTU"
        },
        {
            "key": "004",
            "name": "Reembolso de Gastos M\u00e9dicos Dentales y Hospitalarios"
        },
        {
            "key": "005",
            "name": "Fondo de Ahorro"
        },
        {
            "key": "006",
            "name": "Caja de ahorro"
        },
        {
            "key": "009",
            "name": "Contribuciones a Cargo del Trabajador Pagadas por el Patr\u00f3n"
        },
        {
            "key": "010",
            "name": "Premios por puntualidad"
        },
        {
            "key": "011",
            "name": "Prima de Seguro de vida"
        },
        {
            "key": "012",
            "name": "Seguro de Gastos M\u00e9dicos Mayores"
        },
        {
            "key": "013",
            "name": "Cuotas Sindicales Pagadas por el Patr\u00f3n"
        },
        {
            "key": "014",
            "name": "Subsidios por incapacidad"
        },
        {
            "key": "015",
            "name": "Becas para trabajadores y/o hijos"
        },
        {
            "key": "019",
            "name": "Horas extra"
        },
        {
            "key": "020",
            "name": "Prima dominical"
        },
        {
            "key": "021",
            "name": "Prima vacacional"
        },
        {
            "key": "022",
            "name": "Prima por antig\u00fcedad"
        },
        {
            "key": "023",
            "name": "Pagos por separaci\u00f3n"
        },
        {
            "key": "024",
            "name": "Seguro de retiro"
        },
        {
            "key": "025",
            "name": "Indemnizaciones"
        },
        {
            "key": "026",
            "name": "Reembolso por funeral"
        },
        {
            "key": "027",
            "name": "Cuotas de seguridad social pagadas por el patr\u00f3n"
        },
        {
            "key": "028",
            "name": "Comisiones"
        },
        {
            "key": "029",
            "name": "Vales de despensa"
        },
        {
            "key": "030",
            "name": "Vales de restaurante"
        },
        {
            "key": "031",
            "name": "Vales de gasolina"
        },
        {
            "key": "032",
            "name": "Vales de ropa"
        },
        {
            "key": "033",
            "name": "Ayuda para renta"
        },
        {
            "key": "034",
            "name": "Ayuda para art\u00edculos escolares"
        },
        {
            "key": "035",
            "name": "Ayuda para anteojos"
        },
        {
            "key": "036",
            "name": "Ayuda para transporte"
        },
        {
            "key": "037",
            "name": "Ayuda para gastos de funeral"
        },
        {
            "key": "038",
            "name": "Otros ingresos por salarios"
        },
        {
            "key": "039",
            "name": "Jubilaciones, pensiones o haberes de retiro"
        },
        {
            "key": "044",
            "name": "Jubilaciones, pensiones o haberes de retiro en parcialidades"
        },
        {
            "key": "045",
            "name": "Ingresos en acciones o t\u00edtulos valor que representan bienes"
        },
        {
            "key": "046",
            "name": "Ingresos asimilados a salarios"
        },
        {
            "key": "047",
            "name": "Alimentaci\u00f3n"
        },
        {
            "key": "048",
            "name": "Habitaci\u00f3n"
        },
        {
            "key": "049",
            "name": "Premios por asistencia"
        },
        {
            "key": "050",
            "name": "Vi\u00e1ticos"
        }
    ],
    "tabla": "SATTipoPercepcion"
},
{
    "datos": [
        {
            "key": "02",
            "name": "Sueldos"
        },
        {
            "key": "03",
            "name": "Jubilados"
        },
        {
            "key": "04",
            "name": "Pensionados"
        },
        {
            "key": "05",
            "name": "Asimilados Miembros Sociedades Cooperativas Produccion"
        },
        {
            "key": "06",
            "name": "Asimilados Integrantes Sociedades Asociaciones Civiles"
        },
        {
            "key": "07",
            "name": "Asimilados Miembros consejos"
        },
        {
            "key": "08",
            "name": "Asimilados comisionistas"
        },
        {
            "key": "09",
            "name": "Asimilados Honorarios"
        },
        {
            "key": "10",
            "name": "Asimilados acciones"
        },
        {
            "key": "11",
            "name": "Asimilados otros"
        },
        {
            "key": "12",
            "name": "Jubilados o Pensionados"
        },
        {
            "key": "99",
            "name": "Otro Regimen"
        }
    ],
    "tabla": "SATTipoRegimen"
}
]
